# Blender v2.79 (sub 7) OBJ File: 'palac elementy.blend'
# www.blender.org
mtllib podstawka.mtl
o schody_tarasowe_Cylinder.003
v 1.675372 -0.478322 6.344683
v 1.675372 -0.384491 6.344683
v 2.032357 -0.478322 6.389780
v 2.032357 -0.384491 6.389780
v 2.366912 -0.478322 6.522240
v 2.366912 -0.384491 6.522240
v 2.658015 -0.478322 6.733738
v 2.658015 -0.384491 6.733738
v 2.887374 -0.478322 7.010986
v 2.887374 -0.384491 7.010986
v 3.040579 -0.478322 7.336564
v 3.040579 -0.384491 7.336564
v 3.108003 -0.478322 7.690013
v 3.108003 -0.384491 7.690013
v 3.085410 -0.478322 8.049126
v 3.085410 -0.384491 8.049126
v 2.974218 -0.478322 8.391337
v 2.974218 -0.384491 8.391337
v 2.781415 -0.478322 8.695147
v 2.781415 -0.384491 8.695147
v 2.519116 -0.478322 8.941462
v 2.519116 -0.384491 8.941462
v 2.203801 -0.478321 9.114807
v 2.203801 -0.384491 9.114807
v 1.855282 -0.478321 9.204291
v 1.855282 -0.384491 9.204291
v 1.495460 -0.478321 9.204291
v 1.495460 -0.384491 9.204291
v 1.146941 -0.478321 9.114807
v 1.146941 -0.384491 9.114807
v 0.831626 -0.478322 8.941461
v 0.831626 -0.384491 8.941461
v 0.569327 -0.478322 8.695145
v 0.569327 -0.384491 8.695145
v 0.376525 -0.478322 8.391336
v 0.376525 -0.384491 8.391336
v 0.265334 -0.478322 8.049125
v 0.265334 -0.384491 8.049125
v 0.242740 -0.478322 7.690012
v 0.242740 -0.384491 7.690012
v 0.310165 -0.478322 7.336562
v 0.310165 -0.384491 7.336562
v 0.463370 -0.478322 7.010985
v 0.463370 -0.384491 7.010985
v 0.692730 -0.478322 6.733737
v 0.692730 -0.384491 6.733737
v 0.983833 -0.478322 6.522239
v 0.983833 -0.384491 6.522239
v 1.318388 -0.478322 6.389780
v 1.318388 -0.384491 6.389780
v 2.002229 -0.384491 6.507120
v 1.675372 -0.384491 6.465828
v 2.308550 -0.384491 6.628400
v 2.575085 -0.384491 6.822050
v 2.785088 -0.384491 7.075900
v 2.925363 -0.384491 7.374000
v 2.987097 -0.384491 7.697620
v 2.966410 -0.384491 8.026425
v 2.864603 -0.384491 8.339756
v 2.688071 -0.384491 8.617925
v 2.447909 -0.384491 8.843452
v 2.159204 -0.384491 9.002170
v 1.840099 -0.384491 9.084102
v 1.510643 -0.384491 9.084102
v 1.191538 -0.384491 9.002169
v 0.902834 -0.384491 8.843452
v 0.662671 -0.384491 8.617924
v 0.486140 -0.384491 8.339755
v 0.384333 -0.384491 8.026424
v 0.363647 -0.384491 7.697618
v 0.425381 -0.384491 7.373998
v 0.565657 -0.384491 7.075898
v 0.775660 -0.384491 6.822048
v 1.042196 -0.384491 6.628399
v 1.348516 -0.384491 6.507119
v 2.002229 -0.324911 6.507120
v 1.675372 -0.324911 6.465828
v 2.308550 -0.324911 6.628400
v 2.575085 -0.324911 6.822050
v 2.785088 -0.324911 7.075900
v 2.925363 -0.324911 7.374000
v 2.987097 -0.324911 7.697620
v 2.966410 -0.324911 8.026425
v 2.864603 -0.324911 8.339756
v 2.688071 -0.324911 8.617925
v 2.447909 -0.324911 8.843452
v 2.159204 -0.324911 9.002170
v 1.840099 -0.324911 9.084102
v 1.510643 -0.324911 9.084102
v 1.191538 -0.324911 9.002169
v 0.902834 -0.324911 8.843452
v 0.662671 -0.324911 8.617924
v 0.486140 -0.324911 8.339755
v 0.384333 -0.324911 8.026424
v 0.363647 -0.324911 7.697618
v 0.425381 -0.324911 7.373998
v 0.565657 -0.324911 7.075898
v 0.775660 -0.324911 6.822048
v 1.042196 -0.324911 6.628399
v 1.348516 -0.324911 6.507119
v 1.983188 -0.324911 6.581282
v 1.675372 -0.324911 6.542395
v 2.271663 -0.324911 6.695497
v 2.522671 -0.324911 6.877865
v 2.720440 -0.324911 7.116926
v 2.852543 -0.324911 7.397660
v 2.910681 -0.324911 7.702427
v 2.891199 -0.324911 8.012078
v 2.795323 -0.324911 8.307156
v 2.629076 -0.324911 8.569119
v 2.402904 -0.324911 8.781508
v 2.131018 -0.324911 8.930979
v 1.830503 -0.324911 9.008138
v 1.520240 -0.324911 9.008138
v 1.219724 -0.324911 8.930979
v 0.947839 -0.324911 8.781507
v 0.721667 -0.324911 8.569118
v 0.555420 -0.324911 8.307155
v 0.459544 -0.324911 8.012077
v 0.440063 -0.324911 7.702426
v 0.498201 -0.324911 7.397659
v 0.630305 -0.324911 7.116925
v 0.828074 -0.324911 6.877863
v 1.079082 -0.324911 6.695496
v 1.367557 -0.324911 6.581281
v 1.983188 -0.248202 6.581282
v 1.675372 -0.248202 6.542395
v 2.271663 -0.248202 6.695497
v 2.522671 -0.248202 6.877865
v 2.720440 -0.248202 7.116926
v 2.852543 -0.248202 7.397660
v 2.910681 -0.248202 7.702427
v 2.891199 -0.248202 8.012078
v 2.795323 -0.248202 8.307156
v 2.629076 -0.248202 8.569119
v 2.402904 -0.248202 8.781508
v 2.131018 -0.248202 8.930979
v 1.830503 -0.248202 9.008138
v 1.520240 -0.248202 9.008138
v 1.219724 -0.248202 8.930979
v 0.947839 -0.248202 8.781507
v 0.721667 -0.248202 8.569118
v 0.555420 -0.248202 8.307155
v 0.459544 -0.248202 8.012077
v 0.440063 -0.248202 7.702426
v 0.498201 -0.248202 7.397659
v 0.630305 -0.248202 7.116925
v 0.828074 -0.248202 6.877863
v 1.079082 -0.248202 6.695496
v 1.367557 -0.248202 6.581281
v 1.910954 -0.248202 6.862613
v 1.675372 -0.248202 6.832852
v 2.131734 -0.248202 6.950026
v 2.323840 -0.248202 7.089598
v 2.475199 -0.248202 7.272561
v 2.576303 -0.248202 7.487416
v 2.620797 -0.248202 7.720665
v 2.605887 -0.248202 7.957652
v 2.532510 -0.248202 8.183485
v 2.405275 -0.248202 8.383975
v 2.232177 -0.248202 8.546524
v 2.024094 -0.248202 8.660919
v 1.794099 -0.248202 8.719972
v 1.556644 -0.248202 8.719972
v 1.326649 -0.248202 8.660918
v 1.118565 -0.248202 8.546523
v 0.945468 -0.248202 8.383974
v 0.818234 -0.248202 8.183484
v 0.744856 -0.248202 7.957651
v 0.729946 -0.248202 7.720665
v 0.774441 -0.248202 7.487415
v 0.875545 -0.248202 7.272560
v 1.026905 -0.248202 7.089598
v 1.219010 -0.248202 6.950025
v 1.439791 -0.248202 6.862612
vt 0.863844 0.756319
vt 0.879788 0.756319
vt 0.879788 0.819816
vt 0.863844 0.819816
vt 0.879788 0.877264
vt 0.863844 0.877264
vt 0.879788 0.925053
vt 0.863844 0.925053
vt 0.911674 0.522028
vt 0.927617 0.522028
vt 0.927617 0.579476
vt 0.911674 0.579476
vt 0.927617 0.642973
vt 0.911674 0.642973
vt 0.927617 0.708530
vt 0.911674 0.708530
vt 0.927617 0.772027
vt 0.911674 0.772027
vt 0.927617 0.829475
vt 0.911674 0.829475
vt 0.927617 0.877264
vt 0.911674 0.877264
vt 0.895731 0.877264
vt 0.895731 0.829475
vt 0.911674 0.829475
vt 0.895731 0.772028
vt 0.911674 0.772028
vt 0.895731 0.708530
vt 0.911674 0.708530
vt 0.895731 0.642973
vt 0.911674 0.642973
vt 0.895731 0.579476
vt 0.911674 0.579476
vt 0.895731 0.522028
vt 0.911674 0.522028
vt 0.879788 0.522028
vt 0.895731 0.569817
vt 0.879788 0.569817
vt 0.895731 0.627265
vt 0.879788 0.627265
vt 0.895731 0.690762
vt 0.879788 0.690762
vt 0.895731 0.756319
vt 0.879788 0.756319
vt 0.895731 0.819816
vt 0.879788 0.819816
vt 0.895731 0.877264
vt 0.879788 0.877264
vt 0.863844 0.522028
vt 0.879788 0.522028
vt 0.879788 0.569817
vt 0.863844 0.569817
vt 0.879788 0.627265
vt 0.863844 0.627265
vt 0.228590 0.522028
vt 0.168534 0.509744
vt 0.174895 0.488752
vt 0.229882 0.500000
vt 0.879788 0.690762
vt 0.863844 0.690762
vt 0.516057 0.387007
vt 0.493550 0.326054
vt 0.485887 0.261014
vt 0.493550 0.195974
vt 0.516056 0.135021
vt 0.551993 0.081985
vt 0.599101 0.040197
vt 0.654421 0.012284
vt 0.714477 0.000000
vt 0.775495 0.004116
vt 0.833642 0.024374
vt 0.885263 0.059501
vt 0.927115 0.107290
vt 0.956569 0.164738
vt 0.971774 0.228235
vt 0.971774 0.293792
vt 0.956569 0.357290
vt 0.927116 0.414737
vt 0.885263 0.462526
vt 0.833642 0.497654
vt 0.775495 0.517912
vt 0.714477 0.522028
vt 0.654421 0.509744
vt 0.599101 0.481831
vt 0.551993 0.440044
vt 1.000000 0.794685
vt 1.000000 0.847284
vt 0.989877 0.847284
vt 0.989877 0.794685
vt 0.470682 0.357290
vt 0.441228 0.414738
vt 0.424575 0.401764
vt 0.451544 0.349165
vt 0.399376 0.059502
vt 0.441229 0.107291
vt 0.424576 0.120264
vt 0.386255 0.076508
vt 0.113214 0.040197
vt 0.168534 0.012284
vt 0.174895 0.033276
vt 0.124244 0.058833
vt 0.007663 0.195974
vt 0.030170 0.135021
vt 0.048208 0.145654
vt 0.027600 0.201463
vt 0.113214 0.481831
vt 0.066106 0.440044
vt 0.081111 0.424934
vt 0.124244 0.463195
vt 0.399376 0.462527
vt 0.347755 0.497654
vt 0.338990 0.477683
vt 0.386255 0.445520
vt 0.470682 0.164739
vt 0.485887 0.228236
vt 0.465465 0.231002
vt 0.451544 0.172864
vt 0.228590 0.000000
vt 0.289608 0.004116
vt 0.285751 0.025797
vt 0.229883 0.022028
vt 0.030169 0.387007
vt 0.007663 0.326054
vt 0.027600 0.320565
vt 0.048207 0.376374
vt 0.289608 0.517912
vt 0.285751 0.496231
vt 0.485887 0.293793
vt 0.465465 0.291026
vt 0.347755 0.024375
vt 0.338991 0.044346
vt 0.066106 0.081984
vt 0.081111 0.097093
vt 0.000000 0.261014
vt 0.020584 0.261014
vt 0.430959 0.672863
vt 0.444881 0.731002
vt 0.431973 0.732750
vt 0.418863 0.677999
vt 0.989876 0.632766
vt 0.989876 0.692790
vt 0.979753 0.692790
vt 0.979753 0.632766
vt 0.992021 0.170762
vt 0.992021 0.228901
vt 0.981898 0.228901
vt 0.981898 0.170762
vt 1.000000 0.736546
vt 0.989877 0.736546
vt 0.989876 0.574628
vt 0.979753 0.574628
vt 0.992021 0.110738
vt 0.981898 0.110738
vt 1.000000 0.676522
vt 0.989877 0.676522
vt 0.989876 0.522028
vt 0.979753 0.522028
vt 0.992021 0.052600
vt 0.981898 0.052600
vt 1.000000 0.618384
vt 0.989877 0.618384
vt 0.971774 0.043756
vt 0.971774 0.000000
vt 0.981897 0.000000
vt 0.981897 0.043756
vt 0.992021 0.000000
vt 0.981898 0.000000
vt 1.000000 0.565784
vt 0.989877 0.565784
vt 0.971774 0.096355
vt 0.981897 0.096355
vt 0.971774 0.272656
vt 0.971774 0.214518
vt 0.981897 0.214518
vt 0.981897 0.272656
vt 0.989877 0.803528
vt 0.989877 0.847284
vt 0.979753 0.847284
vt 0.979753 0.803529
vt 1.000000 0.522028
vt 0.989877 0.522028
vt 0.971774 0.154494
vt 0.981897 0.154494
vt 0.971774 0.325256
vt 0.981897 0.325256
vt 0.989876 0.750929
vt 0.979753 0.750929
vt 0.992021 0.281500
vt 0.992021 0.325256
vt 0.981898 0.325256
vt 0.981898 0.281500
vt 0.971774 0.369012
vt 0.981897 0.369012
vt 0.953685 0.522028
vt 0.953685 0.571564
vt 0.940651 0.571564
vt 0.940651 0.522028
vt 0.265167 0.996231
vt 0.209298 1.000000
vt 0.210115 0.986078
vt 0.262729 0.982528
vt 0.060527 0.597094
vt 0.103659 0.558833
vt 0.110630 0.570611
vt 0.070011 0.606643
vt 0.403991 0.620264
vt 0.393466 0.628463
vt 0.318406 0.977683
vt 0.312867 0.965060
vt 0.027623 0.645654
vt 0.039024 0.652375
vt 0.365671 0.576508
vt 0.357378 0.587257
vt 0.365671 0.945520
vt 0.357378 0.934771
vt 0.007016 0.701463
vt 0.019617 0.704933
vt 0.027623 0.876374
vt 0.007016 0.820565
vt 0.019617 0.817096
vt 0.039024 0.869654
vt 0.318406 0.544346
vt 0.312867 0.556968
vt 0.403991 0.901764
vt 0.393466 0.893565
vt 0.000000 0.761014
vt 0.013010 0.761014
vt 0.060527 0.924935
vt 0.070011 0.915385
vt 0.265167 0.525797
vt 0.262729 0.539500
vt 0.430959 0.849165
vt 0.418863 0.844029
vt 0.103660 0.963196
vt 0.110631 0.951417
vt 0.209298 0.522028
vt 0.210115 0.535951
vt 0.444881 0.791026
vt 0.431973 0.789278
vt 0.154311 0.988753
vt 0.158331 0.975485
vt 0.154311 0.533276
vt 0.158331 0.546543
vt 0.451488 0.691010
vt 0.470895 0.638452
vt 0.514143 0.663946
vt 0.499290 0.704171
vt 0.979753 0.563235
vt 0.979753 0.612770
vt 0.966719 0.612770
vt 0.966719 0.563235
vt 0.927617 0.612770
vt 0.927617 0.563235
vt 0.940651 0.563235
vt 0.940651 0.612770
vt 0.927617 0.778800
vt 0.927617 0.724049
vt 0.940651 0.724049
vt 0.940651 0.778800
vt 0.953685 0.563235
vt 0.966719 0.522028
vt 0.966719 0.563235
vt 0.979753 0.522028
vt 0.966719 0.522028
vt 0.927617 0.667522
vt 0.940651 0.667522
vt 0.927617 0.828336
vt 0.940651 0.828336
vt 0.953685 0.612770
vt 0.966719 0.612770
vt 0.953685 0.787129
vt 0.953685 0.828336
vt 0.940651 0.828336
vt 0.940651 0.787129
vt 0.927617 0.869543
vt 0.940651 0.869543
vt 0.953685 0.667522
vt 0.966719 0.667522
vt 0.953685 0.737594
vt 0.940651 0.737594
vt 0.979753 0.778801
vt 0.979753 0.828336
vt 0.966719 0.828336
vt 0.966719 0.778801
vt 0.953685 0.724049
vt 0.966719 0.724049
vt 0.953685 0.682843
vt 0.940651 0.682843
vt 0.979753 0.724049
vt 0.966719 0.724049
vt 0.953685 0.778801
vt 0.966719 0.778801
vt 0.953685 0.626315
vt 0.940651 0.626315
vt 0.979753 0.667522
vt 0.966719 0.667522
vt 0.953685 0.828336
vt 0.966719 0.828336
vt 0.927617 0.522028
vt 0.940651 0.522028
vt 0.499290 0.790013
vt 0.494233 0.747092
vt 0.537858 0.628946
vt 0.568946 0.601370
vt 0.605453 0.582949
vt 0.645085 0.574843
vt 0.685352 0.577559
vt 0.723724 0.590928
vt 0.757790 0.614109
vt 0.785410 0.645646
vt 0.804847 0.683557
vt 0.814881 0.725460
vt 0.814881 0.768723
vt 0.804847 0.810626
vt 0.785410 0.848537
vt 0.757790 0.880074
vt 0.723724 0.903255
vt 0.685352 0.916624
vt 0.645085 0.919341
vt 0.605453 0.911234
vt 0.568946 0.892814
vt 0.537858 0.865237
vt 0.514143 0.830237
vt 0.470895 0.855731
vt 0.451488 0.803173
vt 0.744738 0.543045
vt 0.789249 0.573334
vt 0.825337 0.879642
vt 0.789249 0.920849
vt 0.444881 0.747092
vt 0.501882 0.901463
vt 0.694600 0.525578
vt 0.850734 0.830107
vt 0.542501 0.937495
vt 0.641986 0.522028
vt 0.863844 0.775355
vt 0.590202 0.961563
vt 0.590202 0.532620
vt 0.863844 0.718828
vt 0.641986 0.972155
vt 0.542501 0.556689
vt 0.850734 0.664076
vt 0.694600 0.968606
vt 0.501881 0.592721
vt 0.825337 0.614541
vt 0.744738 0.951138
vn 0.1253 0.0000 -0.9921
vn 0.3681 0.0000 -0.9298
vn 0.5878 0.0000 -0.8090
vn 0.7705 0.0000 -0.6374
vn 0.9048 0.0000 -0.4258
vn 0.9823 0.0000 -0.1874
vn 0.9980 0.0000 0.0628
vn 0.9511 0.0000 0.3090
vn 0.8443 0.0000 0.5358
vn 0.6845 0.0000 0.7290
vn 0.4818 0.0000 0.8763
vn 0.2487 0.0000 0.9686
vn 0.0000 0.0000 1.0000
vn -0.2487 0.0000 0.9686
vn -0.4818 0.0000 0.8763
vn -0.6845 0.0000 0.7290
vn -0.8443 0.0000 0.5358
vn -0.9511 0.0000 0.3090
vn -0.9980 0.0000 0.0628
vn -0.9823 0.0000 -0.1874
vn -0.9048 0.0000 -0.4258
vn -0.7705 0.0000 -0.6374
vn -0.5878 0.0000 -0.8090
vn -0.0000 1.0000 -0.0000
vn -0.3681 0.0000 -0.9298
vn -0.1253 0.0000 -0.9921
vn -0.0000 -1.0000 0.0000
usemtl None
s 1
f 1/1/1 2/2/1 4/3/1 3/4/1
f 3/4/2 4/3/2 6/5/2 5/6/2
f 5/6/3 6/5/3 8/7/3 7/8/3
f 7/9/4 8/10/4 10/11/4 9/12/4
f 9/12/5 10/11/5 12/13/5 11/14/5
f 11/14/6 12/13/6 14/15/6 13/16/6
f 13/16/7 14/15/7 16/17/7 15/18/7
f 15/18/8 16/17/8 18/19/8 17/20/8
f 17/20/9 18/19/9 20/21/9 19/22/9
f 19/22/10 20/23/10 22/24/10 21/25/10
f 21/25/11 22/24/11 24/26/11 23/27/11
f 23/27/12 24/26/12 26/28/12 25/29/12
f 25/29/13 26/28/13 28/30/13 27/31/13
f 27/31/14 28/30/14 30/32/14 29/33/14
f 29/33/15 30/32/15 32/34/15 31/35/15
f 31/36/16 32/34/16 34/37/16 33/38/16
f 33/38/17 34/37/17 36/39/17 35/40/17
f 35/40/18 36/39/18 38/41/18 37/42/18
f 37/42/19 38/41/19 40/43/19 39/44/19
f 39/44/20 40/43/20 42/45/20 41/46/20
f 41/46/21 42/45/21 44/47/21 43/48/21
f 43/49/22 44/50/22 46/51/22 45/52/22
f 45/52/23 46/51/23 48/53/23 47/54/23
f 20/55/24 18/56/24 59/57/24 60/58/24
f 47/54/25 48/53/25 50/59/25 49/60/25
f 49/60/26 50/59/26 2/2/26 1/1/26
f 1/61/27 3/62/27 5/63/27 7/64/27 9/65/27 11/66/27 13/67/27 15/68/27 17/69/27 19/70/27 21/71/27 23/72/27 25/73/27 27/74/27 29/75/27 31/76/27 33/77/27 35/78/27 37/79/27 39/80/27 41/81/27 43/82/27 45/83/27 47/84/27 49/85/27
f 55/86/4 54/87/4 79/88/4 80/89/4
f 30/90/24 28/91/24 64/92/24 65/93/24
f 40/94/24 38/95/24 69/96/24 70/97/24
f 50/98/24 48/99/24 74/100/24 75/101/24
f 6/102/24 4/103/24 51/104/24 53/105/24
f 16/106/24 14/107/24 57/108/24 58/109/24
f 26/110/24 24/111/24 62/112/24 63/113/24
f 36/114/24 34/115/24 67/116/24 68/117/24
f 46/118/24 44/119/24 72/120/24 73/121/24
f 12/122/24 10/123/24 55/124/24 56/125/24
f 22/126/24 20/55/24 60/58/24 61/127/24
f 32/128/24 30/90/24 65/93/24 66/129/24
f 42/130/24 40/94/24 70/97/24 71/131/24
f 2/132/24 50/98/24 75/101/24 52/133/24
f 8/134/24 6/102/24 53/105/24 54/135/24
f 18/56/24 16/106/24 58/109/24 59/57/24
f 4/103/24 2/132/24 52/133/24 51/104/24
f 28/91/24 26/110/24 63/113/24 64/92/24
f 38/95/24 36/114/24 68/117/24 69/96/24
f 48/99/24 46/118/24 73/121/24 74/100/24
f 14/107/24 12/122/24 56/125/24 57/108/24
f 24/111/24 22/126/24 61/127/24 62/112/24
f 34/115/24 32/128/24 66/129/24 67/116/24
f 44/119/24 42/130/24 71/131/24 72/120/24
f 10/123/24 8/134/24 54/135/24 55/124/24
f 89/136/24 88/137/24 113/138/24 114/139/24
f 70/140/19 69/141/19 94/142/19 95/143/19
f 63/144/12 62/145/12 87/146/12 88/147/12
f 56/148/5 55/86/5 80/89/5 81/149/5
f 71/150/20 70/140/20 95/143/20 96/151/20
f 64/152/13 63/144/13 88/147/13 89/153/13
f 57/154/6 56/148/6 81/149/6 82/155/6
f 72/156/21 71/150/21 96/151/21 97/157/21
f 65/158/14 64/152/14 89/153/14 90/159/14
f 58/160/7 57/154/7 82/155/7 83/161/7
f 73/162/22 72/163/22 97/164/22 98/165/22
f 66/166/15 65/158/15 90/159/15 91/167/15
f 59/168/8 58/160/8 83/161/8 84/169/8
f 74/170/23 73/162/23 98/165/23 99/171/23
f 51/172/1 52/173/1 77/174/1 76/175/1
f 67/176/16 66/177/16 91/178/16 92/179/16
f 60/180/9 59/168/9 84/169/9 85/181/9
f 75/182/25 74/170/25 99/171/25 100/183/25
f 53/184/2 51/172/2 76/175/2 78/185/2
f 68/186/17 67/176/17 92/179/17 93/187/17
f 61/188/10 60/189/10 85/190/10 86/191/10
f 52/173/26 75/182/26 100/183/26 77/174/26
f 54/192/3 53/184/3 78/185/3 79/193/3
f 69/141/18 68/186/18 93/187/18 94/142/18
f 62/145/11 61/188/11 86/191/11 87/146/11
f 116/194/15 115/195/15 140/196/15 141/197/15
f 82/198/24 81/199/24 106/200/24 107/201/24
f 97/202/24 96/203/24 121/204/24 122/205/24
f 90/206/24 89/136/24 114/139/24 115/207/24
f 83/208/24 82/198/24 107/201/24 108/209/24
f 98/210/24 97/202/24 122/205/24 123/211/24
f 91/212/24 90/206/24 115/207/24 116/213/24
f 84/214/24 83/208/24 108/209/24 109/215/24
f 99/216/24 98/210/24 123/211/24 124/217/24
f 76/218/24 77/219/24 102/220/24 101/221/24
f 92/222/24 91/212/24 116/213/24 117/223/24
f 85/224/24 84/214/24 109/215/24 110/225/24
f 100/226/24 99/216/24 124/217/24 125/227/24
f 78/228/24 76/218/24 101/221/24 103/229/24
f 93/230/24 92/222/24 117/223/24 118/231/24
f 86/232/24 85/224/24 110/225/24 111/233/24
f 77/219/24 100/226/24 125/227/24 102/220/24
f 79/234/24 78/228/24 103/229/24 104/235/24
f 94/236/24 93/230/24 118/231/24 119/237/24
f 87/238/24 86/232/24 111/233/24 112/239/24
f 80/240/24 79/234/24 104/235/24 105/241/24
f 95/242/24 94/236/24 119/237/24 120/243/24
f 88/137/24 87/238/24 112/239/24 113/138/24
f 81/199/24 80/240/24 105/241/24 106/200/24
f 96/203/24 95/242/24 120/243/24 121/204/24
f 150/244/24 149/245/24 174/246/24 175/247/24
f 109/248/8 108/249/8 133/250/8 134/251/8
f 124/252/23 123/253/23 148/254/23 149/255/23
f 101/256/1 102/257/1 127/258/1 126/259/1
f 117/260/16 116/194/16 141/261/16 142/262/16
f 110/263/9 109/248/9 134/251/9 135/264/9
f 125/265/25 124/252/25 149/255/25 150/266/25
f 103/267/2 101/256/2 126/259/2 128/268/2
f 118/269/17 117/260/17 142/262/17 143/270/17
f 111/271/10 110/272/10 135/273/10 136/274/10
f 102/257/26 125/265/26 150/266/26 127/258/26
f 104/275/3 103/267/3 128/268/3 129/276/3
f 119/277/18 118/269/18 143/270/18 144/278/18
f 112/279/11 111/271/11 136/274/11 137/280/11
f 105/281/4 104/282/4 129/283/4 130/284/4
f 120/285/19 119/277/19 144/278/19 145/286/19
f 113/287/12 112/279/12 137/280/12 138/288/12
f 106/289/5 105/281/5 130/284/5 131/290/5
f 121/291/20 120/285/20 145/286/20 146/292/20
f 114/293/13 113/287/13 138/288/13 139/294/13
f 107/295/6 106/289/6 131/290/6 132/296/6
f 122/297/21 121/291/21 146/292/21 147/298/21
f 115/195/14 114/293/14 139/294/14 140/196/14
f 108/249/7 107/295/7 132/296/7 133/250/7
f 123/253/22 122/299/22 147/300/22 148/254/22
f 151/301/24 152/302/24 175/247/24 174/246/24 173/303/24 172/304/24 171/305/24 170/306/24 169/307/24 168/308/24 167/309/24 166/310/24 165/311/24 164/312/24 163/313/24 162/314/24 161/315/24 160/316/24 159/317/24 158/318/24 157/319/24 156/320/24 155/321/24 154/322/24 153/323/24
f 128/324/24 126/325/24 151/301/24 153/323/24
f 143/326/24 142/327/24 167/309/24 168/308/24
f 136/328/24 135/329/24 160/316/24 161/315/24
f 127/330/24 150/244/24 175/247/24 152/302/24
f 129/331/24 128/324/24 153/323/24 154/322/24
f 144/332/24 143/326/24 168/308/24 169/307/24
f 137/333/24 136/328/24 161/315/24 162/314/24
f 130/334/24 129/331/24 154/322/24 155/321/24
f 145/335/24 144/332/24 169/307/24 170/306/24
f 138/336/24 137/333/24 162/314/24 163/313/24
f 131/337/24 130/334/24 155/321/24 156/320/24
f 146/338/24 145/335/24 170/306/24 171/305/24
f 139/339/24 138/336/24 163/313/24 164/312/24
f 132/340/24 131/337/24 156/320/24 157/319/24
f 147/341/24 146/338/24 171/305/24 172/304/24
f 140/342/24 139/339/24 164/312/24 165/311/24
f 133/343/24 132/340/24 157/319/24 158/318/24
f 148/344/24 147/341/24 172/304/24 173/303/24
f 141/345/24 140/342/24 165/311/24 166/310/24
f 134/346/24 133/343/24 158/318/24 159/317/24
f 149/245/24 148/344/24 173/303/24 174/246/24
f 126/325/24 127/330/24 152/302/24 151/301/24
f 142/327/24 141/345/24 166/310/24 167/309/24
f 135/329/24 134/346/24 159/317/24 160/316/24
